sim/tb_load_use_hazard.vcd
$date
	Sun Apr 12 22:13:56 2026
$end
$version
	Icarus Verilog
$end
$timescale
	1s
$end
$scope module tb_load_use_hazard $end
$var parameter 32 ! DRAIN_CYCLES $end
$var parameter 32 " EXPECTED_FINAL_PC $end
$var parameter 32 # MAX_WAIT_PC $end
$var reg 1 $ clk_w $end
$var reg 32 % imem_write_addr_w [31:0] $end
$var reg 32 & imem_write_data_w [31:0] $end
$var reg 1 ' imem_write_en_w $end
$var reg 1 ( rst_w $end
$var integer 32 ) pass_count_r [31:0] $end
$var integer 32 * test_count_r [31:0] $end
$scope module u_rv32i_cpu $end
$var wire 1 + branch_taken_ex_w $end
$var wire 1 $ clk_i $end
$var wire 32 , imem_write_addr_i [31:0] $end
$var wire 32 - imem_write_data_i [31:0] $end
$var wire 1 ' imem_write_en_i $end
$var wire 1 ( rst_i $end
$var wire 5 . wb_rd_addr_w [4:0] $end
$var wire 32 / wb_rd_data_w [31:0] $end
$var wire 1 0 wb_reg_write_w $end
$var wire 1 1 stall_w $end
$var wire 32 2 pc_plus4_w [31:0] $end
$var wire 32 3 mem_read_data_w [31:0] $end
$var wire 32 4 instruction_f_w [31:0] $end
$var wire 32 5 id_rs2_data_w [31:0] $end
$var wire 5 6 id_rs2_addr_w [4:0] $end
$var wire 32 7 id_rs1_data_w [31:0] $end
$var wire 5 8 id_rs1_addr_w [4:0] $end
$var wire 2 9 id_result_src_w [1:0] $end
$var wire 1 : id_reg_write_w $end
$var wire 5 ; id_rd_addr_w [4:0] $end
$var wire 1 < id_mem_write_w $end
$var wire 32 = id_immediate_w [31:0] $end
$var wire 3 > id_funct3_w [2:0] $end
$var wire 1 ? id_branch_w $end
$var wire 3 @ id_branch_op_w [2:0] $end
$var wire 1 A id_alu_src_b_w $end
$var wire 1 B id_alu_src_a_w $end
$var wire 4 C id_alu_op_w [3:0] $end
$var wire 32 D ex_rs2_fwd_w [31:0] $end
$var wire 32 E ex_rs1_fwd_w [31:0] $end
$var wire 1 F ex_branch_taken_w $end
$var wire 32 G ex_alu_result_w [31:0] $end
$var wire 32 H ex_alu_b_w [31:0] $end
$var wire 32 I ex_alu_a_w [31:0] $end
$var wire 32 J branch_target_ex_w [31:0] $end
$var parameter 32 K DMEM_BASE $end
$var parameter 32 L DMEM_SIZE $end
$var parameter 32 M IMEM_SIZE $end
$var parameter 32 N NOP_INSTR $end
$var reg 32 O ex_mem_alu_res_r [31:0] $end
$var reg 3 P ex_mem_funct3_r [2:0] $end
$var reg 1 Q ex_mem_mem_write_r $end
$var reg 32 R ex_mem_pc_plus4_r [31:0] $end
$var reg 5 S ex_mem_rd_addr_r [4:0] $end
$var reg 1 T ex_mem_reg_write_r $end
$var reg 2 U ex_mem_result_src_r [1:0] $end
$var reg 32 V ex_mem_rs2_r [31:0] $end
$var reg 32 W ex_mem_wb_data_w [31:0] $end
$var reg 4 X id_ex_alu_op_r [3:0] $end
$var reg 1 Y id_ex_alu_src_a_r $end
$var reg 1 Z id_ex_alu_src_b_r $end
$var reg 3 [ id_ex_branch_op_r [2:0] $end
$var reg 1 \ id_ex_branch_r $end
$var reg 3 ] id_ex_funct3_r [2:0] $end
$var reg 32 ^ id_ex_imm_r [31:0] $end
$var reg 1 _ id_ex_mem_write_r $end
$var reg 32 ` id_ex_pc_r [31:0] $end
$var reg 5 a id_ex_rd_addr_r [4:0] $end
$var reg 1 b id_ex_reg_write_r $end
$var reg 2 c id_ex_result_src_r [1:0] $end
$var reg 5 d id_ex_rs1_addr_r [4:0] $end
$var reg 32 e id_ex_rs1_data_r [31:0] $end
$var reg 5 f id_ex_rs2_addr_r [4:0] $end
$var reg 32 g id_ex_rs2_data_r [31:0] $end
$var reg 32 h if_id_instr_r [31:0] $end
$var reg 32 i if_id_pc_r [31:0] $end
$var reg 5 j mem_wb_rd_addr_r [4:0] $end
$var reg 1 k mem_wb_reg_write_r $end
$var reg 32 l mem_wb_wb_data_r [31:0] $end
$var reg 32 m pc_r [31:0] $end
$scope module u_alu $end
$var wire 4 n alu_op_i [3:0] $end
$var wire 32 o operand_a_i [31:0] $end
$var wire 32 p operand_b_i [31:0] $end
$var reg 32 q alu_result_o [31:0] $end
$upscope $end
$scope module u_branch_unit $end
$var wire 1 \ branch_i $end
$var wire 3 r branch_op_i [2:0] $end
$var wire 1 F branch_taken_o $end
$var wire 32 s rs2_data_i [31:0] $end
$var wire 32 t rs1_data_i [31:0] $end
$var reg 1 u condition_met_w $end
$upscope $end
$scope module u_data_memory $end
$var wire 32 v addr_i [31:0] $end
$var wire 1 $ clk_i $end
$var wire 3 w funct3_i [2:0] $end
$var wire 1 Q mem_write_i $end
$var wire 32 x write_data_i [31:0] $end
$var wire 32 y phys_addr_w [31:0] $end
$var parameter 32 z DMEM_BASE $end
$var parameter 32 { MEM_SIZE $end
$var reg 32 | read_data_o [31:0] $end
$upscope $end
$scope module u_decoder $end
$var wire 3 } funct3_o [2:0] $end
$var wire 32 ~ instruction_i [31:0] $end
$var wire 5 !" rs2_addr_o [4:0] $end
$var wire 5 "" rs1_addr_o [4:0] $end
$var wire 5 #" rd_addr_o [4:0] $end
$var wire 7 $" opcode_w [6:0] $end
$var wire 7 %" funct7_w [6:0] $end
$var wire 3 &" funct3_w [2:0] $end
$var reg 4 '" alu_op_o [3:0] $end
$var reg 1 B alu_src_a_o $end
$var reg 1 A alu_src_b_o $end
$var reg 1 ? branch_o $end
$var reg 3 (" branch_op_o [2:0] $end
$var reg 1 < mem_write_o $end
$var reg 1 : reg_write_o $end
$var reg 2 )" result_src_o [1:0] $end
$upscope $end
$scope module u_forward_unit $end
$var wire 32 *" ex_mem_alu_res_i [31:0] $end
$var wire 5 +" ex_mem_rd_i [4:0] $end
$var wire 1 T ex_mem_reg_write_i $end
$var wire 2 ," ex_mem_result_src_i [1:0] $end
$var wire 5 -" id_ex_rs1_addr_i [4:0] $end
$var wire 32 ." id_ex_rs1_data_i [31:0] $end
$var wire 5 /" id_ex_rs2_addr_i [4:0] $end
$var wire 32 0" id_ex_rs2_data_i [31:0] $end
$var wire 32 1" mem_wb_data_i [31:0] $end
$var wire 5 2" mem_wb_rd_i [4:0] $end
$var wire 1 k mem_wb_reg_write_i $end
$var reg 32 3" rs1_fwd_o [31:0] $end
$var reg 32 4" rs2_fwd_o [31:0] $end
$upscope $end
$scope module u_hazard_unit $end
$var wire 5 5" id_ex_rd_i [4:0] $end
$var wire 1 b id_ex_reg_write_i $end
$var wire 2 6" id_ex_result_src_i [1:0] $end
$var wire 5 7" if_id_rs1_i [4:0] $end
$var wire 5 8" if_id_rs2_i [4:0] $end
$var wire 1 1 stall_if_o $end
$upscope $end
$scope module u_immediate_generator $end
$var wire 32 9" instruction_i [31:0] $end
$var wire 7 :" opcode_w [6:0] $end
$var reg 32 ;" immediate_o [31:0] $end
$upscope $end
$scope module u_instruction_memory $end
$var wire 32 <" addr_i [31:0] $end
$var wire 1 $ clk_i $end
$var wire 32 =" instruction_o [31:0] $end
$var wire 32 >" write_addr_i [31:0] $end
$var wire 32 ?" write_data_i [31:0] $end
$var wire 1 ' write_en_i $end
$var parameter 32 @" MEM_SIZE $end
$upscope $end
$scope module u_register_file $end
$var wire 1 $ clk_i $end
$var wire 5 A" rd_addr_i [4:0] $end
$var wire 32 B" rd_data_i [31:0] $end
$var wire 1 0 reg_write_i $end
$var wire 5 C" rs1_addr_i [4:0] $end
$var wire 5 D" rs2_addr_i [4:0] $end
$var wire 1 ( rst_i $end
$var wire 32 E" rs2_data_o [31:0] $end
$var wire 32 F" rs1_data_o [31:0] $end
$scope begin $ivl_for_loop0 $end
$var integer 32 G" i [31:0] $end
$upscope $end
$upscope $end
$upscope $end
$scope begin wait_for_pc $end
$var integer 32 H" c [31:0] $end
$upscope $end
$scope task check_mem $end
$upscope $end
$scope task check_reg $end
$upscope $end
$scope task load_hazard_program $end
$upscope $end
$scope task load_word $end
$upscope $end
$scope task verify_results $end
$upscope $end
$upscope $end
$enddefinitions $end
$comment Show the parameter values. $end
$dumpall
b100000000 @"
b100000000 {
b0 z
b10011 N
b100000000 M
b100000000 L
b0 K
b100000000 #
b1011000 "
b1100 !
$end
#0
$dumpvars
b0 H"
b0 G"
bx F"
bx E"
bx D"
bx C"
bx B"
bx A"
b0 ?"
b0 >"
bx ="
bx <"
b0 ;"
bx :"
bx 9"
bx 8"
bx 7"
bx 6"
bx 5"
bx 4"
bx 3"
bx 2"
bx 1"
bx 0"
bx /"
bx ."
bx -"
bx ,"
bx +"
bx *"
b0 )"
b0 ("
b0 '"
bx &"
bx %"
bx $"
bx #"
bx ""
bx !"
bx ~
bx }
b0 |
bx y
bx x
bx w
bx v
0u
bx t
bx s
bx r
b0 q
bx p
bx o
bx n
bx m
bx l
xk
bx j
bx i
bx h
bx g
bx f
bx e
bx d
bx c
xb
bx a
bx `
x_
bx ^
bx ]
x\
bx [
xZ
xY
bx X
bx W
bx V
bx U
xT
bx S
bx R
xQ
bx P
bx O
b0 J
bx I
bx H
b0 G
0F
bx E
bx D
b0 C
0B
0A
b0 @
0?
bx >
b0 =
0<
bx ;
0:
b0 9
bx 8
bx 7
bx 6
bx 5
bx 4
b0 3
bx 2
x1
x0
bx /
bx .
b0 -
b0 ,
0+
b0 *
b0 )
1(
0'
b0 &
b0 %
0$
$end
#5
b0 7
b0 F"
1A
1:
b0 8
b0 ""
b0 7"
b0 C"
b0 5
b0 E"
01
b10011 $"
b0 >
b0 }
b0 &"
b0 %"
b0 6
b0 !"
b0 8"
b0 D"
b0 ;
b0 #"
b10011 :"
1u
b0 H
b0 p
b0 I
b0 o
bx 3
bx |
b0 W
b0 D
b0 s
b0 4"
b0 E
b0 t
b0 3"
b100 2
b0 m
b0 <"
b10011 h
b10011 ~
b10011 9"
b0 i
b0 ]
b0 a
b0 5"
b0 f
b0 /"
b0 d
b0 -"
b0 [
b0 r
0\
b0 c
b0 6"
0_
0b
0Z
0Y
b0 X
b0 n
b0 g
b0 0"
b0 e
b0 ."
b0 ^
b0 `
b0 R
b0 S
b0 +"
b0 U
b0 ,"
0T
b0 P
b0 w
0Q
b0 V
b0 x
b0 y
b0 O
b0 v
b0 *"
b0 .
b0 A"
b0 j
b0 2"
00
0k
b0 /
b0 B"
b0 l
b0 1"
b100000 G"
1$
#6
1'
b10101000000000000010010011 &
b10101000000000000010010011 -
b10101000000000000010010011 ?"
#10
0$
#15
b10101000000000000010010011 4
b10101000000000000010010011 ="
b100000 G"
1$
#16
b100000010000000100011 &
b100000010000000100011 -
b100000010000000100011 ?"
b100 %
b100 ,
b100 >"
1'
#20
0$
#25
b100000 G"
1$
#26
b101000000000000010010011 &
b101000000000000010010011 -
b101000000000000010010011 ?"
b1000 %
b1000 ,
b1000 >"
1'
#30
0$
#35
b100000 G"
1$
#36
b100000010001000100011 &
b100000010001000100011 -
b100000010001000100011 ?"
b1100 %
b1100 ,
b1100 >"
1'
#40
0$
#45
b100000 G"
1$
#46
b10000100000011 &
b10000100000011 -
b10000100000011 ?"
b10000 %
b10000 ,
b10000 >"
1'
#50
0$
#55
b100000 G"
1$
#56
b10000000110110011 &
b10000000110110011 -
b10000000110110011 ?"
b10100 %
b10100 ,
b10100 >"
1'
#60
0$
#65
b100000 G"
1$
#66
b10000000010001000000011 &
b10000000010001000000011 -
b10000000010001000000011 ?"
b11000 %
b11000 ,
b11000 >"
1'
#70
0$
#75
b100000 G"
1$
#76
b10000100000001010110011 &
b10000100000001010110011 -
b10000100000001010110011 ?"
b11100 %
b11100 ,
b11100 >"
1'
#80
0$
#85
b100000 G"
1$
#86
b10001100000011 &
b10001100000011 -
b10001100000011 ?"
b100000 %
b100000 ,
b100000 >"
1'
#90
0$
#95
b100000 G"
1$
#96
b1000000000100110000001110110011 &
b1000000000100110000001110110011 -
b1000000000100110000001110110011 ?"
b100100 %
b100100 ,
b100100 >"
1'
#100
0$
#105
b100000 G"
1$
#106
b10000000010010000000011 &
b10000000010010000000011 -
b10000000010010000000011 ?"
b101000 %
b101000 ,
b101000 >"
1'
#110
0$
#115
b100000 G"
1$
#116
b100000000010010000100011 &
b100000000010010000100011 -
b100000000010010000100011 ?"
b101100 %
b101100 ,
b101100 >"
1'
#120
0$
#125
b100000 G"
1$
#126
b10101000000000010010010011 &
b10101000000000010010010011 -
b10101000000000010010010011 ?"
b110000 %
b110000 ,
b110000 >"
1'
#130
0$
#135
b100000 G"
1$
#136
b10010100000011 &
b10010100000011 -
b10010100000011 ?"
b110100 %
b110100 ,
b110100 >"
1'
#140
0$
#145
b100000 G"
1$
#146
b100101010000010001100011 &
b100101010000010001100011 -
b100101010000010001100011 ?"
b111000 %
b111000 ,
b111000 >"
1'
#150
0$
#155
b100000 G"
1$
#156
b110001100000000010110010011 &
b110001100000000010110010011 -
b110001100000000010110010011 ?"
b111100 %
b111100 ,
b111100 >"
1'
#160
0$
#165
b100000 G"
1$
#166
b11100000000011000010011 &
b11100000000011000010011 -
b11100000000011000010011 ?"
b1000000 %
b1000000 ,
b1000000 >"
1'
#170
0$
#175
b100000 G"
1$
#176
b10000000000011100010011 &
b10000000000011100010011 -
b10000000000011100010011 ?"
b1000100 %
b1000100 ,
b1000100 >"
1'
#180
0$
#185
b100000 G"
1$
#186
b11010010011 &
b11010010011 -
b11010010011 ?"
b1001000 %
b1001000 ,
b1001000 >"
1'
#190
0$
#195
b100000 G"
1$
#196
b110100000010100000100011 &
b110100000010100000100011 -
b110100000010100000100011 ?"
b1001100 %
b1001100 ,
b1001100 >"
1'
#200
0$
#205
b100000 G"
1$
#206
b1000000000010011100000011 &
b1000000000010011100000011 -
b1000000000010011100000011 ?"
b1010000 %
b1010000 ,
b1010000 >"
1'
#210
0$
#215
b100000 G"
1$
#216
b1110010011110000011 &
b1110010011110000011 -
b1110010011110000011 ?"
b1010100 %
b1010100 ,
b1010100 >"
1'
#220
0$
#225
b100000 G"
1$
#226
0(
0'
#230
0$
#235
1:
1A
b1 %"
b1010 6
b1010 !"
b1010 8"
b1010 D"
b1 ;
b1 #"
b101010 =
b101010 ;"
b100000010000000100011 4
b100000010000000100011 ="
b100 R
1b
1Z
b10101000000000000010010011 h
b10101000000000000010010011 ~
b10101000000000000010010011 9"
b1000 2
b100 m
b100 <"
b1 H"
1$
#240
0$
#245
b101010 J
1<
0:
1A
b101010 G
b101010 q
b101000000000000010010011 4
b101000000000000010010011 ="
b100011 $"
b10 >
b10 }
b10 &"
b0 %"
b1 6
b1 !"
b1 8"
b1 D"
b0 ;
b0 #"
b0 =
b0 ;"
b100011 :"
b101010 H
b101010 p
b1100 2
b1000 m
b1000 <"
b100 i
b100000010000000100011 h
b100000010000000100011 ~
b100000010000000100011 9"
b1 a
b1 5"
b1010 f
b1010 /"
b101010 ^
1T
b10 H"
1$
#250
0$
#255
b0 J
0u
b0 G
b0 q
1:
0<
1A
b101010 W
b101010 D
b101010 s
b101010 4"
b0 H
b0 p
b10011 $"
b0 >
b0 }
b0 &"
b1010 6
b1010 !"
b1010 8"
b1010 D"
b1 ;
b1 #"
b1010 =
b1010 ;"
b10011 :"
b100000010001000100011 4
b100000010001000100011 ="
10
1k
b1 S
b1 +"
b101010 y
b101010 O
b101010 v
b101010 *"
b10 ]
b0 a
b0 5"
b1 f
b1 /"
1_
0b
b0 ^
b100 `
b1000 i
b101000000000000010010011 h
b101000000000000010010011 ~
b101000000000000010010011 9"
b10000 2
b1100 m
b1100 <"
b11 H"
1$
#260
0$
#265
b1010 J
b101010 5
b101010 E"
1<
0:
1A
b1010 G
b1010 q
1u
b10000100000011 4
b10000100000011 ="
b100011 $"
b10 >
b10 }
b10 &"
b1 6
b1 !"
b1 8"
b1 D"
b100 ;
b100 #"
b100 =
b100 ;"
b100011 :"
b1010 H
b1010 p
b0 W
b0 D
b0 s
b0 4"
b10100 2
b10000 m
b10000 <"
b1100 i
b100000010001000100011 h
b100000010001000100011 ~
b100000010001000100011 9"
b0 ]
b1 a
b1 5"
b1010 f
b1010 /"
0_
1b
b1010 ^
b1000 `
b1000 R
b0 S
b0 +"
0T
b10 P
b10 w
1Q
b101010 V
b101010 x
b0 y
b0 O
b0 v
b0 *"
b1 .
b1 A"
b1 j
b1 2"
b101010 /
b101010 B"
b101010 l
b101010 1"
b100 H"
1$
#270
0$
#275
b100 J
0u
b100 G
b100 q
b10 9
b10 )"
1:
0<
1A
b0 5
b0 E"
b1010 W
b1010 D
b1010 s
b1010 4"
b100 H
b100 p
b11 $"
b0 6
b0 !"
b0 8"
b0 D"
b10 ;
b10 #"
b0 =
b0 ;"
b11 :"
b10000000110110011 4
b10000000110110011 ="
b0 .
b0 A"
b0 j
b0 2"
00
0k
b0 /
b0 B"
b0 l
b0 1"
b1100 R
b1 S
b1 +"
1T
b0 P
b0 w
0Q
b0 V
b0 x
b1010 y
b1010 O
b1010 v
b1010 *"
b10 ]
b100 a
b100 5"
b1 f
b1 /"
1_
0b
b101010 g
b101010 0"
b100 ^
b1100 `
b10000 i
b10000100000011 h
b10000100000011 ~
b10000100000011 9"
b11000 2
b10100 m
b10100 <"
b101 H"
1$
#280
0$
#285
11
b0 J
b0 9
b0 )"
1:
0A
b10 8
b10 ""
b10 7"
b10 C"
b0 G
b0 q
1u
b10000000010001000000011 4
b10000000010001000000011 ="
b110011 $"
b0 >
b0 }
b0 &"
b11 ;
b11 #"
b110011 :"
b0 H
b0 p
b100 W
b0 D
b0 s
b0 4"
b11100 2
b11000 m
b11000 <"
b10100 i
b10000000110110011 h
b10000000110110011 ~
b10000000110110011 9"
b10 a
b10 5"
b0 f
b0 /"
b10 c
b10 6"
0_
1b
b0 g
b0 0"
b0 ^
b10000 `
b10000 R
b100 S
b100 +"
0T
b10 P
b10 w
1Q
b1010 V
b1010 x
b100 y
b100 O
b100 v
b100 *"
b1 .
b1 A"
b1 j
b1 2"
10
1k
b1010 /
b1010 B"
b1010 l
b1010 1"
b110 H"
1$
#290
0$
#295
01
b101010 W
b101010 3
b101010 |
b100 .
b100 A"
b100 j
b100 2"
00
0k
b100 /
b100 B"
b100 l
b100 1"
b10100 R
b10 S
b10 +"
b10 U
b10 ,"
1T
0Q
b0 V
b0 x
b0 y
b0 O
b0 v
b0 *"
b0 ]
b0 a
b0 5"
b0 c
b0 6"
0b
0Z
b0 `
b111 H"
1$
#300
0$
#305
b101010 J
b101010 G
b101010 q
b10 9
b10 )"
1A
1:
b0 8
b0 ""
b0 7"
b0 C"
b0 7
b0 F"
b101010 I
b101010 o
0u
b10000100000001010110011 4
b10000100000001010110011 ="
b11 $"
b10 >
b10 }
b10 &"
b100 6
b100 !"
b100 8"
b100 D"
b100 ;
b100 #"
b100 =
b100 ;"
b11 :"
b0 W
b101010 E
b101010 t
b101010 3"
b100000 2
b11100 m
b11100 <"
b11000 i
b10000000010001000000011 h
b10000000010001000000011 ~
b10000000010001000000011 9"
b11 a
b11 5"
b10 d
b10 -"
1b
b10100 `
b100 R
b0 S
b0 +"
b0 U
b0 ,"
0T
b0 P
b0 w
b10 .
b10 A"
b10 j
b10 2"
10
1k
b101010 /
b101010 B"
b101010 l
b101010 1"
b1000 H"
1$
#310
0$
#315
11
b100 J
b0 I
b0 o
1u
b100 G
b100 q
b0 9
b0 )"
1:
0A
b100 8
b100 ""
b100 7"
b100 C"
bx 3
bx |
b101010 W
b0 E
b0 t
b0 3"
b100 H
b100 p
b110011 $"
b0 >
b0 }
b0 &"
b101 ;
b101 #"
b0 =
b0 ;"
b110011 :"
b10001100000011 4
b10001100000011 ="
b0 .
b0 A"
b0 j
b0 2"
00
0k
b0 /
b0 B"
b0 l
b0 1"
b11000 R
b11 S
b11 +"
1T
b101010 y
b101010 O
b101010 v
b101010 *"
b10 ]
b100 a
b100 5"
b100 f
b100 /"
b0 d
b0 -"
b10 c
b10 6"
1Z
b100 ^
b11000 `
b11100 i
b10000100000001010110011 h
b10000100000001010110011 ~
b10000100000001010110011 9"
b100100 2
b100000 m
b100000 <"
b1001 H"
1$
#320
0$
#325
b0 J
01
b0 G
b0 q
b0 H
b0 p
b1010 3
b1010 |
b1010 W
b0 ]
b0 a
b0 5"
b0 f
b0 /"
b0 c
b0 6"
0b
0Z
b0 ^
b0 `
b11100 R
b100 S
b100 +"
b10 U
b10 ,"
b10 P
b10 w
b100 y
b100 O
b100 v
b100 *"
b11 .
b11 A"
b11 j
b11 2"
10
1k
b101010 /
b101010 B"
b101010 l
b101010 1"
b1010 H"
1$
#330
0$
#335
b10100 J
b10100 G
b10100 q
b0 7
b0 F"
b1010 H
b1010 p
b1010 I
b1010 o
b10 9
b10 )"
1A
1:
b0 8
b0 ""
b0 7"
b0 C"
b101010 3
b101010 |
b0 W
b1010 D
b1010 s
b1010 4"
b1010 E
b1010 t
b1010 3"
b11 $"
b10 >
b10 }
b10 &"
b0 6
b0 !"
b0 8"
b0 D"
b110 ;
b110 #"
b11 :"
b1000000000100110000001110110011 4
b1000000000100110000001110110011 ="
b100 .
b100 A"
b100 j
b100 2"
b1010 /
b1010 B"
b1010 l
b1010 1"
b100 R
b0 S
b0 +"
b0 U
b0 ,"
0T
b0 P
b0 w
b0 y
b0 O
b0 v
b0 *"
b101 a
b101 5"
b100 f
b100 /"
b100 d
b100 -"
1b
b11100 `
b100000 i
b10001100000011 h
b10001100000011 ~
b10001100000011 9"
b101000 2
b100100 m
b100100 <"
b1011 H"
1$
#340
0$
#345
11
b0 J
b1 C
b1 '"
b0 9
b0 )"
1:
0A
b110 8
b110 ""
b110 7"
b110 C"
b1010 5
b1010 E"
b0 G
b0 q
b0 I
b0 o
b10000000010010000000011 4
b10000000010010000000011 ="
b110011 $"
b0 >
b0 }
b0 &"
b100000 %"
b1 6
b1 !"
b1 8"
b1 D"
b111 ;
b111 #"
b110011 :"
b0 H
b0 p
bx 3
bx |
b10100 W
b0 D
b0 s
b0 4"
b0 E
b0 t
b0 3"
b101100 2
b101000 m
b101000 <"
b100100 i
b1000000000100110000001110110011 h
b1000000000100110000001110110011 ~
b1000000000100110000001110110011 9"
b10 ]
b110 a
b110 5"
b0 f
b0 /"
b0 d
b0 -"
b10 c
b10 6"
1Z
b100000 `
b100000 R
b101 S
b101 +"
1T
b1010 V
b1010 x
b10100 y
b10100 O
b10100 v
b10100 *"
b0 .
b0 A"
b0 j
b0 2"
00
0k
b0 /
b0 B"
b0 l
b0 1"
b1100 H"
1$
#350
0$
#355
01
b101010 3
b101010 |
b101010 W
b101 .
b101 A"
b101 j
b101 2"
10
1k
b10100 /
b10100 B"
b10100 l
b10100 1"
b100100 R
b110 S
b110 +"
b10 U
b10 ,"
b10 P
b10 w
b0 V
b0 x
b0 y
b0 O
b0 v
b0 *"
b0 ]
b0 a
b0 5"
b0 c
b0 6"
0b
0Z
b0 `
b1101 H"
1$
#360
0$
#365
b100000 J
b100000 G
b100000 q
b10 9
b10 )"
1A
1:
b0 C
b0 '"
b0 8
b0 ""
b0 7"
b0 C"
b0 7
b0 F"
b1010 H
b1010 p
b101010 I
b101010 o
0u
b100000000010010000100011 4
b100000000010010000100011 ="
b11 $"
b10 >
b10 }
b10 &"
b0 %"
b100 6
b100 !"
b100 8"
b100 D"
b1000 ;
b1000 #"
b100 =
b100 ;"
b11 :"
b0 W
b1010 D
b1010 s
b1010 4"
b101010 E
b101010 t
b101010 3"
b110000 2
b101100 m
b101100 <"
b101000 i
b10000000010010000000011 h
b10000000010010000000011 ~
b10000000010010000000011 9"
b111 a
b111 5"
b1 f
b1 /"
b110 d
b110 -"
1b
b1 X
b1 n
b1010 g
b1010 0"
b100100 `
b100 R
b0 S
b0 +"
b0 U
b0 ,"
0T
b0 P
b0 w
b110 .
b110 A"
b110 j
b110 2"
b101010 /
b101010 B"
b101010 l
b101010 1"
b1110 H"
1$
#370
0$
#375
11
b0 I
b0 o
b100 J
1<
b0 9
b0 )"
0:
1A
b0 5
b0 E"
bx 3
bx |
b100000 W
b0 E
b0 t
b0 3"
b100 H
b100 p
b100 G
b100 q
b100011 $"
b1000 6
b1000 !"
b1000 8"
b1000 D"
b1000 =
b1000 ;"
b100011 :"
b10101000000000010010010011 4
b10101000000000010010010011 ="
b0 .
b0 A"
b0 j
b0 2"
00
0k
b0 /
b0 B"
b0 l
b0 1"
b101000 R
b111 S
b111 +"
1T
b1010 V
b1010 x
b100000 y
b100000 O
b100000 v
b100000 *"
b10 ]
b1000 a
b1000 5"
b100 f
b100 /"
b0 d
b0 -"
b10 c
b10 6"
1Z
b0 X
b0 n
b100 ^
b101000 `
b101100 i
b100000000010010000100011 h
b100000000010010000100011 ~
b100000000010010000100011 9"
b110100 2
b110000 m
b110000 <"
b1111 H"
1$
#380
0$
#385
b0 J
01
b0 G
b0 q
1u
b0 H
b0 p
b1010 3
b1010 |
b1010 W
b0 D
b0 s
b0 4"
b0 ]
b0 a
b0 5"
b0 f
b0 /"
b0 c
b0 6"
0b
0Z
b0 g
b0 0"
b0 ^
b0 `
b101100 R
b1000 S
b1000 +"
b10 U
b10 ,"
b10 P
b10 w
b100 y
b100 O
b100 v
b100 *"
b111 .
b111 A"
b111 j
b111 2"
10
1k
b100000 /
b100000 B"
b100000 l
b100000 1"
b10000 H"
1$
#390
0$
#395
b1000 J
0u
b1000 G
b1000 q
1:
0<
1A
b101010 3
b101010 |
b0 W
b1010 D
b1010 s
b1010 4"
b1000 H
b1000 p
b10011 $"
b0 >
b0 }
b0 &"
b1 %"
b1010 6
b1010 !"
b1010 8"
b1010 D"
b1001 ;
b1001 #"
b101010 =
b101010 ;"
b10011 :"
b10010100000011 4
b10010100000011 ="
b1000 .
b1000 A"
b1000 j
b1000 2"
b1010 /
b1010 B"
b1010 l
b1010 1"
b100 R
b0 S
b0 +"
b0 U
b0 ,"
0T
b0 P
b0 w
b0 V
b0 x
b0 y
b0 O
b0 v
b0 *"
b10 ]
b1000 a
b1000 5"
b1000 f
b1000 /"
1_
1Z
b1000 ^
b101100 `
b110000 i
b10101000000000010010010011 h
b10101000000000010010010011 ~
b10101000000000010010010011 9"
b111000 2
b110100 m
b110100 <"
b10001 H"
1$
#400
0$
#405
b101010 J
b10 9
b10 )"
1:
1A
b101010 G
b101010 q
1u
b100101010000010001100011 4
b100101010000010001100011 ="
b11 $"
b10 >
b10 }
b10 &"
b0 %"
b0 6
b0 !"
b0 8"
b0 D"
b1010 ;
b1010 #"
b0 =
b0 ;"
b11 :"
b101010 H
b101010 p
bx 3
bx |
b1000 W
b0 D
b0 s
b0 4"
b111100 2
b111000 m
b111000 <"
b110100 i
b10010100000011 h
b10010100000011 ~
b10010100000011 9"
b0 ]
b1001 a
b1001 5"
b1010 f
b1010 /"
0_
1b
b101010 ^
b110000 `
b110000 R
b1000 S
b1000 +"
b10 P
b10 w
1Q
b1010 V
b1010 x
b1000 y
b1000 O
b1000 v
b1000 *"
b0 .
b0 A"
b0 j
b0 2"
00
0k
b0 /
b0 B"
b0 l
b0 1"
b10010 H"
1$
#410
0$
#415
11
b0 J
b0 G
b0 q
1B
1?
b0 9
b0 )"
0:
1A
b1010 8
b1010 ""
b1010 7"
b1010 C"
b101010 W
b0 H
b0 p
b1100011 $"
b0 >
b0 }
b0 &"
b1001 6
b1001 !"
b1001 8"
b1001 D"
b1000 ;
b1000 #"
b1000 =
b1000 ;"
b1100011 :"
b110001100000000010110010011 4
b110001100000000010110010011 ="
b1000 .
b1000 A"
b1000 j
b1000 2"
b1000 /
b1000 B"
b1000 l
b1000 1"
b110100 R
b1001 S
b1001 +"
1T
b0 P
b0 w
0Q
b0 V
b0 x
b101010 y
b101010 O
b101010 v
b101010 *"
b10 ]
b1010 a
b1010 5"
b0 f
b0 /"
b10 c
b10 6"
b0 ^
b110100 `
b111000 i
b100101010000010001100011 h
b100101010000010001100011 ~
b100101010000010001100011 9"
b1000000 2
b111100 m
b111100 <"
b10011 H"
1$
#420
0$
#425
01
b101010 5
b101010 E"
b101010 3
b101010 |
b101010 W
b0 ]
b0 a
b0 5"
b0 c
b0 6"
0b
0Z
b0 `
b111000 R
b1010 S
b1010 +"
b10 U
b10 ,"
b10 P
b10 w
b0 y
b0 O
b0 v
b0 *"
b1001 .
b1001 A"
b1001 j
b1001 2"
10
1k
b101010 /
b101010 B"
b101010 l
b101010 1"
b10100 H"
1$
#430
0$
#435
b1000000 J
b0 7
b0 F"
b1000000 G
b1000000 q
1:
0?
1A
0B
b0 8
b0 ""
b0 7"
b0 C"
b0 W
1+
1F
b1000 H
b1000 p
b111000 I
b111000 o
b101010 D
b101010 s
b101010 4"
b101010 E
b101010 t
b101010 3"
b10011 $"
b11 %"
b11 6
b11 !"
b11 8"
b11 D"
b1011 ;
b1011 #"
b1100011 =
b1100011 ;"
b10011 :"
b11100000000011000010011 4
b11100000000011000010011 ="
b1010 .
b1010 A"
b1010 j
b1010 2"
b100 R
b0 S
b0 +"
b0 U
b0 ,"
0T
b0 P
b0 w
b1000 a
b1000 5"
b1001 f
b1001 /"
b1010 d
b1010 -"
1\
1Z
1Y
b101010 g
b101010 0"
b1000 ^
b111000 `
b111100 i
b110001100000000010110010011 h
b110001100000000010110010011 ~
b110001100000000010110010011 9"
b1000100 2
b1000000 m
b1000000 <"
b10101 H"
1$
#440
0$
